…
`gather() + spread()`
---------------------

Likert data: 25 people and their responses to Q1-Q10

    df <- read_csv("../data/likert.csv")
    df

    ## # A tibble: 25 x 11
    ##    Name        Q1    Q2    Q3    Q4    Q5    Q6    Q7    Q8    Q9   Q10
    ##    <chr>    <dbl> <dbl> <dbl> <dbl> <dbl> <dbl> <dbl> <dbl> <dbl> <dbl>
    ##  1 Michael      4     3     2     4     4     3     4     4     5     4
    ##  2 Jonathan     3     1     4     5     2     2     4     5     5     2
    ##  3 Leah         5     5     3     2     5     5     4     2     5     5
    ##  4 Adam         4     3     2     4     3     3     2     3     4     3
    ##  5 Joe          4     4     4     5     3     3     4     5     3     4
    ##  6 Richard      4     2     5     3     3     3     3     4     3     3
    ##  7 Jasmine      4     3     3     2     4     4     4     2     3     3
    ##  8 Austin       3     2     4     3     2     4     3     2     2     3
    ##  9 Victor       4     4     2     2     4     3     4     3     3     3
    ## 10 Faith        4     2     4     5     4     2     3     4     4     4
    ## # … with 15 more rows

Number of 1, 2, 3, 4, 5s per person
===================================

    df %>%
      gather(key = "Question", value = "Response", -Name) %>% 
      group_by(Name, Response) %>% 
      summarize(Count = n()) %>% 
      mutate(Response = paste0("Count", Response)) %>% # so column names aren't numbers
      spread(key = "Response", value = "Count")

    ## # A tibble: 23 x 6
    ## # Groups:   Name [23]
    ##    Name       Count1 Count2 Count3 Count4 Count5
    ##    <chr>       <int>  <int>  <int>  <int>  <int>
    ##  1 Adam           NA      2      5      3     NA
    ##  2 Alexander      NA     NA     NA     NA     10
    ##  3 Amelia         NA      5      2      1      2
    ##  4 Austin         NA      4      4      2     NA
    ##  5 Bernadette     NA      2      1      7     NA
    ##  6 Colin          NA      1      3      6     NA
    ##  7 David           1      1      5      3     NA
    ##  8 Ella           NA     NA      2      5      3
    ##  9 Faith          NA      2      1      6      1
    ## 10 James          NA      1      1     NA      8
    ## # … with 13 more rows
